328328 775616 509
6290 9166 257
486 985 179
6961 9017 252
707 764 153
483 793 171
462679 761360 509
9736 8307 260
317170 362810 441
64 429 144
329 152 144
853 628 171
8917 1158 262
3359 2895 217
131269 603672 470
572766 355248 470
558118 128505 470
6547 9859 260
365688 654096 509
792152 606992 509
7085 578 262
590102 364653 470
6247 2232 262
166560 925236 525
976035 857921 507
627250 563124 509
603 763 171
335123 549014 470
969137 512374 525
104366 315777 443
46271 121915 354
330485 483768 449
253 4734 238
798 225 171
682 112 145
9595 1390 262
678074 944695 525
932932 957690 507
822889 420213 509
967565 26919 525
846110 530633 525
340800 968714 525
903 744 179
65351 966172 525
823325 343366 509
81611 860829 525
319215 701470 509
522 546 137
224522 177104 386
130 158 117
480 646 142
81424 902200 525
598362 947197 525
205178 328693 443
202 669 145
335378 617650 470
184723 261492 443
947168 436459 525
539 861 171
388285 392618 436
128 762 171
387246 533087 470
730825 990906 525
651836 632921 416
642 678 145
4060 8912 262
854287 847324 419
5299 5012 192
7243 8340 252
3639 1266 217
2460 6507 262
31013 539857 470
397500 163294 443
125612 676602 509
396052 810279 509
974981 765175 525
458243 432326 400
638 760 171
228383 172171 386
7393 310 262
8201 9784 260
216437 118439 386
5949 3420 238
35120 669885 509
69438 481783 449
908333 958205 507
814457 199448 509
444349 381576 449
780061 277404 509
986572 513645 525
10201 396754 443
6248 9351 260
766 318 171
947998 735735 525
828 800 135
175423 628809 509
175577 872297 525
197547 888124 525
838 593 171
675406 68881 509
451699 757346 509
521259 40156 470
923 933 130
575683 537815 452
251385 88892 443
363230 143243 443
609389 295494 470
31793 22267 308
621845 408679 470
6376 3733 262
262357 374416 441
291667 840725 525
485141 20120 449
889867 9187 525
4317 3559 238
270 461 144
796367 33010 509
7874 2739 262
331721 184603 443
705560 497767 509
9747 2650 262
1045 7946 262
730516 347324 509
289720 577542 470
96054 881069 525
3271 7508 262
454 206 144
407617 287582 441
652326 729582 504
9040 791 262
958022 1699 525
1278 481 182
886384 201753 525
4712 2926 238
356965 90462 443
670815 110789 509
837326 933455 525
180235 537377 470
242 916 179
166 213 125
56 118 119
758962 724880 424
612138 21623 470
206 592 144
509702 548631 470
559 189 144
345472 567261 470
634655 173958 509
806648 467478 509
8231 8992 247
